INDEX VERSION 1.131+C:\Users\raeesaronylubna\Documents\workbook\test_java\.metadata\.plugins\org.eclipse.jdt.core
2029998455.index
2167746865.index
352735909.index
1430224112.index
1833146792.index
2538946849.index
858989570.index
2583997070.index
4007638639.index
3993276655.index
4244135459.index
2394799282.index
2200875372.index
413768607.index
1334648926.index
1148937498.index
2415444992.index
3067598330.index
1892976616.index
3088572073.index
4159017284.index
1673018609.index
2031775585.index
1090041047.index
615226062.index
2425483026.index
1561788606.index
1337131223.index
711050520.index
2086132134.index
2995560003.index
1542774334.index
4014275949.index
2305444176.index
3839578677.index
1944593060.index
419121081.index
1741647643.index
3166927587.index
3877573408.index
561689436.index
3450831843.index
345553055.index
990864624.index
483652434.index
1339055314.index
2701284951.index
686889833.index
3948874899.index
2609714019.index
3720716507.index
1864939448.index
843719023.index
2788572234.index
2973695523.index
822404768.index
3741326170.index
2518467930.index
2691524525.index
